Posición;Nombre del artista;Nombre de la canción;Días;Top 10 (xTimes);Posición máxima;Posición máxima (xTimes);Peak Streams;Total Streams
1;Post Malone ;Sunflower  SpiderMan: Into the SpiderVerse;1506;302;1;29;2118242;883369738
2;Juice WRLD ;Lucid Dreams;1673;178;1;20;2127668;864832399
3;Lil Uzi Vert ;XO TOUR Llif3;1853;212;1;4;1660502;781153024
4;J. Cole ;No Role Modelz;2547;6;7;0;659366;734857487
5;Post Malone ;rockstar;1223;186;1;124;2905678;718865961
6;Travis Scott ;goosebumps;1995;4;8;0;977275;672972704
7;The Weeknd ;Blinding Lights;1100;233;1;11;2355059;644287953
8;XXXTENTACION ;Jocelyn Flores;1673;44;2;1;3175206;624457164
9;XXXTENTACION ;SAD!;1217;133;1;6;4437612;619879245
10;Juice WRLD ;All Girls Are The Same;1681;2;5;0;1239152;613872384
11;Kendrick Lamar ;HUMBLE.;1175;152;1;67;4060034;606305588
12;Post Malone ;Circles;1172;163;1;38;3441328;598521764
13;Travis Scott ;SICKO MODE;1046;190;1;19;4129691;586638599
